{
    "data": {
        "data_path": "data/training_data/training_clips_h36m.npy",
        "input_sequence_length": 32,
        "output_sequence_length": 32
    },
    "generator": {
        "output_length": 32,
        "output_dims": 32,
        "hidden_units": 256,
        "z_dims": 32,
        "n_filters": [
            [
                128,
                128,
                128,
                128
            ]
        ],
        "f_sizes": [
            [
                3,
                3,
                3,
                3
            ]
        ],
        "dilation_rates": [
            [
                1,
                2,
                4,
                8
            ]
        ],
        "mid_units": 128,
        "cell": "lstm",
        "use_spatial": true,
        "use_residual": true,
        "enc_file": "output/spatialEncoder/model/spatialEncoder_SpatialEncoder_150.ckpt",
        "dec_file": "output/spatialEncoder/model/spatialEncoder_SpatialDecoder_150.ckpt"
    },
    "discriminator": {
        "n_filters": [
            [
                128,
                128,
                128
            ]
        ],
        "f_sizes": [
            [
                3,
                3,
                3
            ]
        ],
        "dilation_rates": [
            [
                1,
                2,
                4
            ]
        ],
        "base_dim": 128,
        "multiscale": [
            true,
            false
        ],
        "z_dims": 32,
        "guided": true,
        "output_activation": null
    },
    "evaluator": {
        "n_filters": [
            [
                128,
                128,
                128
            ]
        ],
        "f_sizes": [
            [
                3,
                3,
                3
            ]
        ],
        "dilation_rates": [
            [
                1,
                2,
                4
            ]
        ],
        "base_dim": 128,
        "multiscale": false,
        "z_dims": null,
        "guided": false,
        "output_activation": "sigmoid"
    },
    "train": {
        "epochs": 200,
        "learning_rate": 0.0001,
        "batchsize": 16,
        "save_every_epochs": 20,
        "sample_every_epochs": 20,
        "g_iter": 1,
        "d_iter": 5,
        "e_iter": 1,
        "lambda_c": [
            0.1,
            1
        ],
        "lambda_r": [
            0.1,
            1
        ],
        "bvh_file": "data/training_data/6kmh.bvh",
        "smooth_loss": [
            null,
            0.1
        ],
        "bone_length_loss": [
            null,
            0.1
        ],
        "guided_loss": [
            null,
            0.1
        ]
    }
}