D:\workspace\my_git_repos\vae_motion_modeling\HP-GAN\hpgan-master\human36m\S9\Discussion 1.h5,2,9
D:\workspace\my_git_repos\vae_motion_modeling\HP-GAN\hpgan-master\human36m\S1\Smoking 1.h5,11,1
D:\workspace\my_git_repos\vae_motion_modeling\HP-GAN\hpgan-master\human36m\S7\Sitting 1.h5,9,7
D:\workspace\my_git_repos\vae_motion_modeling\HP-GAN\hpgan-master\human36m\S6\Sitting 1.h5,9,6
D:\workspace\my_git_repos\vae_motion_modeling\HP-GAN\hpgan-master\human36m\S9\Photo.h5,6,9
D:\workspace\my_git_repos\vae_motion_modeling\HP-GAN\hpgan-master\human36m\S11\Waiting 1.h5,12,11
D:\workspace\my_git_repos\vae_motion_modeling\HP-GAN\hpgan-master\human36m\S7\Waiting 2.h5,12,7
D:\workspace\my_git_repos\vae_motion_modeling\HP-GAN\hpgan-master\human36m\S9\Posing.h5,7,9
D:\workspace\my_git_repos\vae_motion_modeling\HP-GAN\hpgan-master\human36m\S7\Purchases 1.h5,8,7
D:\workspace\my_git_repos\vae_motion_modeling\HP-GAN\hpgan-master\human36m\S6\Discussion.h5,2,6
D:\workspace\my_git_repos\vae_motion_modeling\HP-GAN\hpgan-master\human36m\S7\SittingDown 1.h5,10,7
D:\workspace\my_git_repos\vae_motion_modeling\HP-GAN\hpgan-master\human36m\S8\Discussion.h5,2,8
D:\workspace\my_git_repos\vae_motion_modeling\HP-GAN\hpgan-master\human36m\S6\Waiting.h5,12,6
D:\workspace\my_git_repos\vae_motion_modeling\HP-GAN\hpgan-master\human36m\S11\Purchases.h5,8,11
D:\workspace\my_git_repos\vae_motion_modeling\HP-GAN\hpgan-master\human36m\S5\Directions 2.h5,1,5
D:\workspace\my_git_repos\vae_motion_modeling\HP-GAN\hpgan-master\human36m\S7\Sitting.h5,9,7
D:\workspace\my_git_repos\vae_motion_modeling\HP-GAN\hpgan-master\human36m\S11\Greeting.h5,4,11
D:\workspace\my_git_repos\vae_motion_modeling\HP-GAN\hpgan-master\human36m\S9\Directions.h5,1,9
D:\workspace\my_git_repos\vae_motion_modeling\HP-GAN\hpgan-master\human36m\S7\Walking 2.h5,14,7
D:\workspace\my_git_repos\vae_motion_modeling\HP-GAN\hpgan-master\human36m\S11\Eating 1.h5,3,11
D:\workspace\my_git_repos\vae_motion_modeling\HP-GAN\hpgan-master\human36m\S6\Sitting 2.h5,9,6
D:\workspace\my_git_repos\vae_motion_modeling\HP-GAN\hpgan-master\human36m\S8\Purchases 1.h5,8,8
D:\workspace\my_git_repos\vae_motion_modeling\HP-GAN\hpgan-master\human36m\S11\Purchases 1.h5,8,11
D:\workspace\my_git_repos\vae_motion_modeling\HP-GAN\hpgan-master\human36m\S11\Directions.h5,1,11
D:\workspace\my_git_repos\vae_motion_modeling\HP-GAN\hpgan-master\human36m\S11\WalkDog 1.h5,13,11
D:\workspace\my_git_repos\vae_motion_modeling\HP-GAN\hpgan-master\human36m\S1\Photo.h5,6,1
D:\workspace\my_git_repos\vae_motion_modeling\HP-GAN\hpgan-master\human36m\S8\Directions.h5,1,8
D:\workspace\my_git_repos\vae_motion_modeling\HP-GAN\hpgan-master\human36m\S8\Photo 1.h5,6,8
D:\workspace\my_git_repos\vae_motion_modeling\HP-GAN\hpgan-master\human36m\S8\SittingDown 1.h5,10,8
D:\workspace\my_git_repos\vae_motion_modeling\HP-GAN\hpgan-master\human36m\S11\Directions 1.h5,1,11
D:\workspace\my_git_repos\vae_motion_modeling\HP-GAN\hpgan-master\human36m\S7\Photo 1.h5,6,7
D:\workspace\my_git_repos\vae_motion_modeling\HP-GAN\hpgan-master\human36m\S5\Directions 1.h5,1,5
D:\workspace\my_git_repos\vae_motion_modeling\HP-GAN\hpgan-master\human36m\S7\Discussion 1.h5,2,7
D:\workspace\my_git_repos\vae_motion_modeling\HP-GAN\hpgan-master\human36m\S8\Greeting.h5,4,8
D:\workspace\my_git_repos\vae_motion_modeling\HP-GAN\hpgan-master\human36m\S8\SittingDown.h5,10,8
D:\workspace\my_git_repos\vae_motion_modeling\HP-GAN\hpgan-master\human36m\S5\Eating 1.h5,3,5
D:\workspace\my_git_repos\vae_motion_modeling\HP-GAN\hpgan-master\human36m\S6\Purchases 1.h5,8,6
D:\workspace\my_git_repos\vae_motion_modeling\HP-GAN\hpgan-master\human36m\S6\Waiting 3.h5,12,6
D:\workspace\my_git_repos\vae_motion_modeling\HP-GAN\hpgan-master\human36m\S1\WalkTogether 1.h5,15,1
D:\workspace\my_git_repos\vae_motion_modeling\HP-GAN\hpgan-master\human36m\S7\WalkTogether 1.h5,15,7
D:\workspace\my_git_repos\vae_motion_modeling\HP-GAN\hpgan-master\human36m\S8\Posing.h5,7,8
D:\workspace\my_git_repos\vae_motion_modeling\HP-GAN\hpgan-master\human36m\S9\Smoking.h5,11,9
D:\workspace\my_git_repos\vae_motion_modeling\HP-GAN\hpgan-master\human36m\S7\Smoking 1.h5,11,7
D:\workspace\my_git_repos\vae_motion_modeling\HP-GAN\hpgan-master\human36m\S5\Waiting 2.h5,12,5
D:\workspace\my_git_repos\vae_motion_modeling\HP-GAN\hpgan-master\human36m\S5\Greeting 2.h5,4,5
D:\workspace\my_git_repos\vae_motion_modeling\HP-GAN\hpgan-master\human36m\S5\SittingDown 1.h5,10,5
D:\workspace\my_git_repos\vae_motion_modeling\HP-GAN\hpgan-master\human36m\S5\SittingDown.h5,10,5
D:\workspace\my_git_repos\vae_motion_modeling\HP-GAN\hpgan-master\human36m\S5\Sitting.h5,9,5
D:\workspace\my_git_repos\vae_motion_modeling\HP-GAN\hpgan-master\human36m\S1\Photo 1.h5,6,1
D:\workspace\my_git_repos\vae_motion_modeling\HP-GAN\hpgan-master\human36m\S9\Directions 1.h5,1,9
D:\workspace\my_git_repos\vae_motion_modeling\HP-GAN\hpgan-master\human36m\S1\Phoning.h5,5,1
D:\workspace\my_git_repos\vae_motion_modeling\HP-GAN\hpgan-master\human36m\S6\WalkDog 1.h5,13,6
D:\workspace\my_git_repos\vae_motion_modeling\HP-GAN\hpgan-master\human36m\S8\Sitting.h5,9,8
D:\workspace\my_git_repos\vae_motion_modeling\HP-GAN\hpgan-master\human36m\S6\Walking 1.h5,14,6
D:\workspace\my_git_repos\vae_motion_modeling\HP-GAN\hpgan-master\human36m\S9\Eating 1.h5,3,9
D:\workspace\my_git_repos\vae_motion_modeling\HP-GAN\hpgan-master\human36m\S9\Smoking 1.h5,11,9
D:\workspace\my_git_repos\vae_motion_modeling\HP-GAN\hpgan-master\human36m\S5\Posing 1.h5,7,5
D:\workspace\my_git_repos\vae_motion_modeling\HP-GAN\hpgan-master\human36m\S1\Purchases 1.h5,8,1
D:\workspace\my_git_repos\vae_motion_modeling\HP-GAN\hpgan-master\human36m\S7\Posing.h5,7,7
D:\workspace\my_git_repos\vae_motion_modeling\HP-GAN\hpgan-master\human36m\S7\Posing 1.h5,7,7
D:\workspace\my_git_repos\vae_motion_modeling\HP-GAN\hpgan-master\human36m\S7\Waiting 1.h5,12,7
D:\workspace\my_git_repos\vae_motion_modeling\HP-GAN\hpgan-master\human36m\S8\Phoning.h5,5,8
D:\workspace\my_git_repos\vae_motion_modeling\HP-GAN\hpgan-master\human36m\S1\WalkDog.h5,13,1
D:\workspace\my_git_repos\vae_motion_modeling\HP-GAN\hpgan-master\human36m\S7\Directions 1.h5,1,7
D:\workspace\my_git_repos\vae_motion_modeling\HP-GAN\hpgan-master\human36m\S1\Walking.h5,14,1
D:\workspace\my_git_repos\vae_motion_modeling\HP-GAN\hpgan-master\human36m\S8\Waiting 1.h5,12,8
D:\workspace\my_git_repos\vae_motion_modeling\HP-GAN\hpgan-master\human36m\S7\Photo.h5,6,7
D:\workspace\my_git_repos\vae_motion_modeling\HP-GAN\hpgan-master\human36m\S7\Greeting.h5,4,7
D:\workspace\my_git_repos\vae_motion_modeling\HP-GAN\hpgan-master\human36m\S6\Directions.h5,1,6
D:\workspace\my_git_repos\vae_motion_modeling\HP-GAN\hpgan-master\human36m\S11\WalkDog.h5,13,11
D:\workspace\my_git_repos\vae_motion_modeling\HP-GAN\hpgan-master\human36m\S6\Posing 2.h5,7,6
D:\workspace\my_git_repos\vae_motion_modeling\HP-GAN\hpgan-master\human36m\S6\Purchases.h5,8,6
D:\workspace\my_git_repos\vae_motion_modeling\HP-GAN\hpgan-master\human36m\S1\Directions 1.h5,1,1
D:\workspace\my_git_repos\vae_motion_modeling\HP-GAN\hpgan-master\human36m\S9\Greeting 1.h5,4,9
D:\workspace\my_git_repos\vae_motion_modeling\HP-GAN\hpgan-master\human36m\S8\Smoking.h5,11,8
D:\workspace\my_git_repos\vae_motion_modeling\HP-GAN\hpgan-master\human36m\S11\Sitting 1.h5,9,11
D:\workspace\my_git_repos\vae_motion_modeling\HP-GAN\hpgan-master\human36m\S6\Posing.h5,7,6
D:\workspace\my_git_repos\vae_motion_modeling\HP-GAN\hpgan-master\human36m\S1\SittingDown.h5,10,1
D:\workspace\my_git_repos\vae_motion_modeling\HP-GAN\hpgan-master\human36m\S9\Purchases 1.h5,8,9
D:\workspace\my_git_repos\vae_motion_modeling\HP-GAN\hpgan-master\human36m\S5\Eating.h5,3,5
D:\workspace\my_git_repos\vae_motion_modeling\HP-GAN\hpgan-master\human36m\S1\Phoning 1.h5,5,1
D:\workspace\my_git_repos\vae_motion_modeling\HP-GAN\hpgan-master\human36m\S11\Smoking 2.h5,11,11
D:\workspace\my_git_repos\vae_motion_modeling\HP-GAN\hpgan-master\human36m\S6\Smoking 1.h5,11,6
D:\workspace\my_git_repos\vae_motion_modeling\HP-GAN\hpgan-master\human36m\S1\Discussion 1.h5,2,1
D:\workspace\my_git_repos\vae_motion_modeling\HP-GAN\hpgan-master\human36m\S9\Sitting.h5,9,9
D:\workspace\my_git_repos\vae_motion_modeling\HP-GAN\hpgan-master\human36m\S1\Posing 1.h5,7,1
D:\workspace\my_git_repos\vae_motion_modeling\HP-GAN\hpgan-master\human36m\S7\Phoning 2.h5,5,7
D:\workspace\my_git_repos\vae_motion_modeling\HP-GAN\hpgan-master\human36m\S7\Phoning.h5,5,7
D:\workspace\my_git_repos\vae_motion_modeling\HP-GAN\hpgan-master\human36m\S11\Photo 1.h5,6,11
D:\workspace\my_git_repos\vae_motion_modeling\HP-GAN\hpgan-master\human36m\S8\Greeting 1.h5,4,8
D:\workspace\my_git_repos\vae_motion_modeling\HP-GAN\hpgan-master\human36m\S11\Posing 1.h5,7,11
D:\workspace\my_git_repos\vae_motion_modeling\HP-GAN\hpgan-master\human36m\S5\WalkDog.h5,13,5
D:\workspace\my_git_repos\vae_motion_modeling\HP-GAN\hpgan-master\human36m\S1\Walking 1.h5,14,1
D:\workspace\my_git_repos\vae_motion_modeling\HP-GAN\hpgan-master\human36m\S5\Phoning.h5,5,5
D:\workspace\my_git_repos\vae_motion_modeling\HP-GAN\hpgan-master\human36m\S8\Directions 1.h5,1,8
D:\workspace\my_git_repos\vae_motion_modeling\HP-GAN\hpgan-master\human36m\S9\WalkDog 1.h5,13,9
D:\workspace\my_git_repos\vae_motion_modeling\HP-GAN\hpgan-master\human36m\S7\Walking 1.h5,14,7
D:\workspace\my_git_repos\vae_motion_modeling\HP-GAN\hpgan-master\human36m\S1\Eating.h5,3,1
D:\workspace\my_git_repos\vae_motion_modeling\HP-GAN\hpgan-master\human36m\S6\Directions 1.h5,1,6
D:\workspace\my_git_repos\vae_motion_modeling\HP-GAN\hpgan-master\human36m\S9\Waiting 1.h5,12,9
D:\workspace\my_git_repos\vae_motion_modeling\HP-GAN\hpgan-master\human36m\S6\Walking.h5,14,6
D:\workspace\my_git_repos\vae_motion_modeling\HP-GAN\hpgan-master\human36m\S9\Phoning.h5,5,9
D:\workspace\my_git_repos\vae_motion_modeling\HP-GAN\hpgan-master\human36m\S8\Phoning 1.h5,5,8
D:\workspace\my_git_repos\vae_motion_modeling\HP-GAN\hpgan-master\human36m\S9\Waiting.h5,12,9
D:\workspace\my_git_repos\vae_motion_modeling\HP-GAN\hpgan-master\human36m\S8\Walking.h5,14,8
D:\workspace\my_git_repos\vae_motion_modeling\HP-GAN\hpgan-master\human36m\S11\Smoking.h5,11,11
D:\workspace\my_git_repos\vae_motion_modeling\HP-GAN\hpgan-master\human36m\S11\Discussion 2.h5,2,11
D:\workspace\my_git_repos\vae_motion_modeling\HP-GAN\hpgan-master\human36m\S6\SittingDown 1.h5,10,6
D:\workspace\my_git_repos\vae_motion_modeling\HP-GAN\hpgan-master\human36m\S5\WalkTogether.h5,15,5
D:\workspace\my_git_repos\vae_motion_modeling\HP-GAN\hpgan-master\human36m\S6\WalkTogether.h5,15,6
D:\workspace\my_git_repos\vae_motion_modeling\HP-GAN\hpgan-master\human36m\S1\WalkTogether.h5,15,1
D:\workspace\my_git_repos\vae_motion_modeling\HP-GAN\hpgan-master\human36m\S7\WalkDog.h5,13,7
D:\workspace\my_git_repos\vae_motion_modeling\HP-GAN\hpgan-master\human36m\S1\Greeting.h5,4,1
D:\workspace\my_git_repos\vae_motion_modeling\HP-GAN\hpgan-master\human36m\S6\Greeting 1.h5,4,6
D:\workspace\my_git_repos\vae_motion_modeling\HP-GAN\hpgan-master\human36m\S6\Smoking.h5,11,6
D:\workspace\my_git_repos\vae_motion_modeling\HP-GAN\hpgan-master\human36m\S9\Eating.h5,3,9
D:\workspace\my_git_repos\vae_motion_modeling\HP-GAN\hpgan-master\human36m\S5\Photo 2.h5,6,5
D:\workspace\my_git_repos\vae_motion_modeling\HP-GAN\hpgan-master\human36m\S11\Eating.h5,3,11
D:\workspace\my_git_repos\vae_motion_modeling\HP-GAN\hpgan-master\human36m\S9\WalkDog.h5,13,9
D:\workspace\my_git_repos\vae_motion_modeling\HP-GAN\hpgan-master\human36m\S9\SittingDown 1.h5,10,9
D:\workspace\my_git_repos\vae_motion_modeling\HP-GAN\hpgan-master\human36m\S1\Eating 2.h5,3,1
D:\workspace\my_git_repos\vae_motion_modeling\HP-GAN\hpgan-master\human36m\S5\WalkTogether 1.h5,15,5
D:\workspace\my_git_repos\vae_motion_modeling\HP-GAN\hpgan-master\human36m\S11\SittingDown 1.h5,10,11
D:\workspace\my_git_repos\vae_motion_modeling\HP-GAN\hpgan-master\human36m\S11\Waiting.h5,12,11
D:\workspace\my_git_repos\vae_motion_modeling\HP-GAN\hpgan-master\human36m\S5\Walking.h5,14,5
D:\workspace\my_git_repos\vae_motion_modeling\HP-GAN\hpgan-master\human36m\S6\WalkDog.h5,13,6
D:\workspace\my_git_repos\vae_motion_modeling\HP-GAN\hpgan-master\human36m\S11\Discussion 1.h5,2,11
D:\workspace\my_git_repos\vae_motion_modeling\HP-GAN\hpgan-master\human36m\S9\Walking 1.h5,14,9
D:\workspace\my_git_repos\vae_motion_modeling\HP-GAN\hpgan-master\human36m\S1\Waiting.h5,12,1
D:\workspace\my_git_repos\vae_motion_modeling\HP-GAN\hpgan-master\human36m\S9\Photo 1.h5,6,9
D:\workspace\my_git_repos\vae_motion_modeling\HP-GAN\hpgan-master\human36m\S9\Greeting.h5,4,9
D:\workspace\my_git_repos\vae_motion_modeling\HP-GAN\hpgan-master\human36m\S8\WalkTogether 2.h5,15,8
D:\workspace\my_git_repos\vae_motion_modeling\HP-GAN\hpgan-master\human36m\S5\Phoning 1.h5,5,5
D:\workspace\my_git_repos\vae_motion_modeling\HP-GAN\hpgan-master\human36m\S6\WalkTogether 1.h5,15,6
D:\workspace\my_git_repos\vae_motion_modeling\HP-GAN\hpgan-master\human36m\S7\Discussion.h5,2,7
D:\workspace\my_git_repos\vae_motion_modeling\HP-GAN\hpgan-master\human36m\S5\WalkDog 1.h5,13,5
D:\workspace\my_git_repos\vae_motion_modeling\HP-GAN\hpgan-master\human36m\S1\Directions.h5,1,1
D:\workspace\my_git_repos\vae_motion_modeling\HP-GAN\hpgan-master\human36m\S11\Phoning 3.h5,5,11
D:\workspace\my_git_repos\vae_motion_modeling\HP-GAN\hpgan-master\human36m\S6\SittingDown.h5,10,6
D:\workspace\my_git_repos\vae_motion_modeling\HP-GAN\hpgan-master\human36m\S5\Posing.h5,7,5
D:\workspace\my_git_repos\vae_motion_modeling\HP-GAN\hpgan-master\human36m\S7\Greeting 1.h5,4,7
D:\workspace\my_git_repos\vae_motion_modeling\HP-GAN\hpgan-master\human36m\S6\Eating 1.h5,3,6
D:\workspace\my_git_repos\vae_motion_modeling\HP-GAN\hpgan-master\human36m\S8\Eating.h5,3,8
D:\workspace\my_git_repos\vae_motion_modeling\HP-GAN\hpgan-master\human36m\S9\WalkTogether.h5,15,9
D:\workspace\my_git_repos\vae_motion_modeling\HP-GAN\hpgan-master\human36m\S5\Smoking 1.h5,11,5
D:\workspace\my_git_repos\vae_motion_modeling\HP-GAN\hpgan-master\human36m\S1\Sitting 2.h5,9,1
D:\workspace\my_git_repos\vae_motion_modeling\HP-GAN\hpgan-master\human36m\S11\Walking.h5,14,11
D:\workspace\my_git_repos\vae_motion_modeling\HP-GAN\hpgan-master\human36m\S5\Sitting 1.h5,9,5
D:\workspace\my_git_repos\vae_motion_modeling\HP-GAN\hpgan-master\human36m\S9\Phoning 1.h5,5,9
D:\workspace\my_git_repos\vae_motion_modeling\HP-GAN\hpgan-master\human36m\S7\SittingDown.h5,10,7
D:\workspace\my_git_repos\vae_motion_modeling\HP-GAN\hpgan-master\human36m\S11\Greeting 2.h5,4,11
D:\workspace\my_git_repos\vae_motion_modeling\HP-GAN\hpgan-master\human36m\S11\Photo.h5,6,11
D:\workspace\my_git_repos\vae_motion_modeling\HP-GAN\hpgan-master\human36m\S8\WalkTogether 1.h5,15,8
D:\workspace\my_git_repos\vae_motion_modeling\HP-GAN\hpgan-master\human36m\S9\Purchases.h5,8,9
D:\workspace\my_git_repos\vae_motion_modeling\HP-GAN\hpgan-master\human36m\S8\WalkDog 1.h5,13,8
D:\workspace\my_git_repos\vae_motion_modeling\HP-GAN\hpgan-master\human36m\S8\Walking 1.h5,14,8
D:\workspace\my_git_repos\vae_motion_modeling\HP-GAN\hpgan-master\human36m\S5\Smoking.h5,11,5
D:\workspace\my_git_repos\vae_motion_modeling\HP-GAN\hpgan-master\human36m\S1\Waiting 1.h5,12,1
D:\workspace\my_git_repos\vae_motion_modeling\HP-GAN\hpgan-master\human36m\S1\Greeting 1.h5,4,1
D:\workspace\my_git_repos\vae_motion_modeling\HP-GAN\hpgan-master\human36m\S5\Walking 1.h5,14,5
D:\workspace\my_git_repos\vae_motion_modeling\HP-GAN\hpgan-master\human36m\S6\Phoning 1.h5,5,6
D:\workspace\my_git_repos\vae_motion_modeling\HP-GAN\hpgan-master\human36m\S8\Waiting.h5,12,8
D:\workspace\my_git_repos\vae_motion_modeling\HP-GAN\hpgan-master\human36m\S7\Directions.h5,1,7
D:\workspace\my_git_repos\vae_motion_modeling\HP-GAN\hpgan-master\human36m\S11\Phoning 2.h5,5,11
D:\workspace\my_git_repos\vae_motion_modeling\HP-GAN\hpgan-master\human36m\S1\Discussion.h5,2,1
D:\workspace\my_git_repos\vae_motion_modeling\HP-GAN\hpgan-master\human36m\S6\Phoning.h5,5,6
D:\workspace\my_git_repos\vae_motion_modeling\HP-GAN\hpgan-master\human36m\S11\Sitting.h5,9,11
D:\workspace\my_git_repos\vae_motion_modeling\HP-GAN\hpgan-master\human36m\S8\Smoking 1.h5,11,8
